rtl/dbbTest/transcript
# vsim -c -do "run -all" tb_systolicArray8x8 
# Start time: 16:20:15 on Sep 24,2025
# Loading sv_std.std
# Loading work.tb_systolicArray8x8
# Loading work.systolicArray8x8
# Loading work.systolicArray4x4
# Loading work.systolicArray
# Loading work.pe
# Loading work.dsp_mult
# run -all
# ---- Matrix A ----
#    1    1    1    1    0    1    0    1 
#    1    0    0    1    0    1    1    1 
#    0    0    1    0    0    0    1    0 
#    0    0    0    0    0    1    1    0 
#    0    1    0    1    1    1    0    1 
#    0    0    0    0    1    1    0    0 
#    1    0    1    0    1    1    0    0 
#    0    0    1    1    1    1    1    1 
# ---- Matrix B ----
#    0    1    0    0    1    1    1    0 
#    1    1    0    0    0    1    0    1 
#    1    1    0    1    1    0    1    0 
#    0    1    1    1    1    0    1    0 
#    1    0    0    1    1    0    0    1 
#    0    0    0    1    0    0    1    1 
#    0    1    1    0    0    1    0    0 
#    0    0    1    1    1    0    1    0 
# ---- Reference C ----
#    2    4    2    4    4    2    5    2 
#    0    3    3    3    3    2    4    1 
#    1    2    1    1    1    1    1    0 
#    0    1    1    1    0    1    1    1 
#    2    2    2    4    3    1    3    3 
#    1    0    0    2    1    0    1    2 
#    2    2    0    3    3    1    3    2 
#    2    3    3    5    4    1    4    2 
# ---- DUT C ----
#    2    4    2    4    4    2    5    2 
#    0    3    3    3    3    2    4    1 
#    1    2    1    1    1    1    1    0 
#    0    1    1    1    0    1    1    1 
#    2    2    2    4    3    1    3    3 
#    1    0    0    2    1    0    1    2 
#    2    2    0    3    3    1    3    2 
#    2    3    3    4    4    1    4    1 
# Mismatch at (7,3): ref=5, dut=4
# Mismatch at (7,7): ref=2, dut=1
# ==== TEST FAILED: 2 mismatches ====
# ** Note: $finish    : tb_systolicArray8x8.sv(229)
#    Time: 335 ns  Iteration: 1  Instance: /tb_systolicArray8x8
# End time: 16:20:15 on Sep 24,2025, Elapsed time: 0:00:00
# Errors: 0, Warnings: 0
