temp/transcript
# vsim -c -do "run -all" tb_testMult 
# Start time: 14:26:17 on Sep 24,2025
# Loading sv_std.std
# Loading work.tb_testMult
# Loading work.systolicArray32x32_new
# Loading work.systolicArray16x16
# Loading work.topSystolicArray
# Loading work.systolicArray
# Loading work.pe
# Loading work.dsp_mult
# run -all
# ===== 32x32 Systolic Array Test =====
# ---- Matrix A (random 8-bit) ----
#    3    8    7    5    9    3    5    4    4    3    7    9    1    3    7    0    0    8    0    1   10    5    7    7    8    2    1    1    6    8    7    7 
#    1    4    0    3    1    5    9    8    1    2    1    0    6    3    7    2    2    6    8    2   10    8    2    0    6    4    7    3    8    7    1    7 
#    1    2   10    5    9    2   10    3    8    2    0   10    5    1    2    0    8    1    6    4    9    0    2    3    9    2    2    8    4    7    8    2 
#    7    1   10    1    7    3    8    6    0    6    8    1    2   10    2    0    2    1    6    5    7    8    9   10    2    2    3    6    7    2    0    6 
#    3    0    3    7    7    4    8    4    3    8    5    3    2    8    6    2    0    7    5    3    4    4    2    1    6    7    3    6    2    2    2    3 
#    3    9    8    2    5    1    5   10    7    2    5   10    3    1    0    3    3    4    9    7    5   10    8    6    2    8    2    8    5    3    1    3 
#    4    3    9   10    5    4    8    2    6    2   10    4    1    9    8   10    1    9    6    7    7    2    4    0    7    0   10    8    8    0    3    3 
#    0    2    1    6    3    3    6   10    3    5    7    7    8    2    3    3    2    8    8    1   10    7    7    5    1    5    0   10    2    2    9    2 
#   10    6    1    5    2    3    1   10    7    9    9   10    8    6    0    8    8    5    0   10    1   10    5    0   10    6    8    5    1    7    1    7 
#    8    2    8    0    5    1    6    3    5    6    6   10    1    9    0    3    4    5    4   10   10    0    9   10    7    4    8    7    0    1    5    4 
#    9    6    9    2   10   10    1    5    5    0    4    7    0   10    0    6    6    5    8    6    3    2    8    6    9    5   10    8    1    7    1    2 
#    1    2    3    9    0    5    8    6    3    8   10    1    1    3    8    1    8    2    7    3    1    2    1    6    3    7    4   10    0    7    0    5 
#    8    3    4    7    6    5    6    6    8    8    5    1    1    4    4    4    8    6    8    5    9    8    1    0    8    8    8    4    4   10    8    2 
#    5    9    0    5    5    5    5    2    3   10    9    7    2    7    9   10    9    4   10   10    1   10    5    2    5    5    2    4    4    1   10    4 
#    4    4    7    5    2    4    6    6    8    4    7    3    4    9    3    5   10    7    1    3    7    4    5    8    8    8    0    1    3    2    3    1 
#    9    1    9    9    9   10    3    5    5    5    8    4    8    8    4    5    8    7    1    5    8   10    2    5    2    0    6    0    6    6   10    2 
#    0    1    4    2    5    2    1    9    0    6    2    2    8    6    7    3    9    2    3    3    7    8    1   10    6    2    0   10    4   10    8    9 
#    7    0    9    8   10   10    7    3    3    7   10   10    0    5    2    0    2    1    9    5    6    1    0    8    2    2   10    8    1    6    4    6 
#    1    3    3    6    0    0    6   10    5    7   10    9   10    8   10    2    9    4    4    2    1    6    9    1    0   10    0    1    4    6    3    5 
#   10    8    5   10    4   10    0    5    4   10    1    6    2    4    0    1    1    9    5    8    4    5   10    1   10    6    8    2    5    8    4    4 
#    0    6    0   10   10    9    9    3    1    1    7    8    7    5    0    5    1    5   10    7    3    1    0    1    0   10    0    1    0    3    3    0 
#   10    3    5    9    4    7    6    5    3    1    1    8    8   10    5    9    9   10    9    4    1    0    6    3    5    1   10   10    0   10    7    9 
#    3    5    5    5    0   10    3    6   10    7    2    4    6   10    1    1    2    4   10    1    5    7    1    8    5    3    2    9    3    5    5    5 
#    0    3    1    0    2    5   10    5    1    8   10    7    8    4    8    3    5    3    8    7    8    9    5    3    2    0    9    4    3   10    5    7 
#    2    1    9    6    3    2    0    9    3    4    1    7    6    9   10    8    8    6    3    2    8    9    2   10    4    8    1    7    1   10   10    4 
#    2    7    6    3    0    4   10    9   10    6    5    3    4    8   10    8    2    1    0   10    0    3    4    5    5    2    2    2    3    4    0    9 
#   10    4    6    1    6    8    0    0    2    5    4    0    9    6    0    5    3    5   10    6    6    5    4    6    7    1    1    6    5    6    2    2 
#   10    8   10    8    6    5    9    7    0    4    8    0    3    6    7    5    4    9    2    6    8    8    5    0    3    0    3   10    7    0    5    0 
#    0    0    8    1    6    3    0    7    8    0   10   10    8    3    2   10    6    5    1    5    5    9    3   10   10    4    5    9    0    5    8    1 
#    5    9    9    1    8    6    9    8    1    7    5    2    9    7    6    7    5    6    4    0    2    0    2    3    6    0   10    4    8    6    6    9 
#    9    1    1    6    3    2    0    5    3    1   10    2    3    4    6    4    4    9    5    0    0    4    4    5    8    3    9    7    1    2    3    3 
#    0    2    3    3    0    1    8    0    4    8    4    4    5    5    7    8   10   10    3    9   10   10    1    4    5    3    1    5   10    3    1   10 
# ---- Matrix B (random 8-bit) ----
#   10    5    3    8    6    7    0    0    3    4   10   10    6   10    5    3    6   10   10   10   10    2    7    2   10    5    2    6    0    5    8    6 
#    9   10    7    1    6    6    9    3    4    4    5    8    6    8    7    6    7    9    3    8    7    6    3    8    3    4    6    9    7    3   10    6 
#    1    1    5    0   10    4    4    4    8   10    8    4    0   10    5    3   10   10    2    8    4    3    0    6   10   10    7    2    9    3    4    6 
#    3    3    6    3    4    7    7    2    3    7    7    4    8    3    6    1    2    3   10    7   10    5    6    7    5    1    2    9    5    6    7    0 
#    0    1    5    4    2    9    0    7    4    6    5    5    6    6    0    8    3    9    4    2    8    0    7    2    1    8    7    7    9    8    4    9 
#   10    2    4    5    5    3    2    0   10    1    1    3   10   10    9    3    3    4    6    0    6    9    7    1    8    4    1   10    2    7    0    5 
#    3    5   10   10    6    1    6    5    0    6    0   10    4    5    3    6    0   10    2   10    2    4    4    4    2    3    0    9    8   10    2    3 
#    0    1    5    0    3    7    9   10    7    9    0    3    5    3    3    3    5    9    8    3   10    8    9   10    4    3    9    2    3    3    2    0 
#    2   10    2   10    0    5   10    3    7    0    5    4    3    7    6    9    5    5    5    1    9    4   10    1    6    1    7    6    8    0    6    8 
#    0    2    5    9    8    3    2    4    0    3    6    0    5    8    9    3    3    9    8    6    7    9    6    9    8    0    1   10    2    5    7    1 
#    9    8    7    9    4    8    6    7    4    2    5    8    4    5    9   10    6    4    9   10    7    9    4    7   10    0    5    5    7    1    9   10 
#    5    2    0    6    7    2    2    3    1    6    6    2    4    2    3    9    5    8    7    3    2    9    2    7    6    5    0    8    7    3    5    5 
#    1    7    8    8    0    9    8    0    4    8    3    8    8    0    3    1    3    4    6    6    3    7    5    6    6    2   10   10    5    4    7    5 
#    3    2    1    1    5    8    9    3    3    7    9    8    1    8    4    7    9    7    8    1    5   10   10    6    6    1    7    2    0    4    5    6 
#    4    2    8    6    1    6   10    4    9    0    0    6    9    3    7    0    8    1    7    0    9    9    2    1    2    2    2    2    0    6    6    3 
#    3    3    8    6    8    9    2    2    4    9    0    4    5    5    0   10    9    9    7    2    3    8    9    2    3    4    5    3    4    5    1    2 
#   10    9    4    2    2    5    0   10    9    6    7    6   10    9    4    4    2    5    8    2   10    2    2    7    5    2    4    8    6    3    9    4 
#    1   10    0    8    0    8    5    5    6    7    3    9    1    8   10    2    4    3    9    3    5    1    2    4    9    0    3    8    6    4    2   10 
#    0   10    8    3    9    0    6    2    2    0    7    1    9    5    3    6    6    5    7    4   10    5    1    1   10    5    1    0    8   10    3    3 
#    5    8    1   10    9    3    3    4    7    9    1    6    5    3    9    5    9    6    7   10    1    2    8    1    7    9    3    9    6    2    5   10 
#    9    8    5    3    0    1    3    7    9    6    5    8    9    6    0    9    6    2    2    2    8    0    0    8    7    4    1    0    1    2    5    6 
#    5    4    9   10    8    1    7   10    4    9    1    1    1    6    8    5    7    0    2    9    0    7    0    0    1    0   10    1    2    2    8    8 
#    8    2    1    8    1    0    7    9    6    6    3   10    5    9    2    7    7    3    8    4    3    6    0    1    0    4    5   10    1    1    4    1 
#   10    4   10    5    9    3    6    5    9    6    7    1    1    1    0    5    2    8    4    9    7    6    1    3    9    1    9    9    0   10    1    8 
#    2    5    6    5   10    8    2    8    5   10    2   10    9    3    6    9    9    4    3    7    3    5    6    8    1    2    7    1    8    9    6   10 
#    6   10    8    7    3    4    7   10    0    2    1    4    9    3   10    0    3    0    4    1    9    2    6    2   10    3    0    3    7    2    2    3 
#    3    3    3    0    1    4   10    8    6    6    6    2   10    2    6    7    6    2    2    6    2    4    8    1    9    1    3    1    8   10    0    0 
#    0    0    2    2    1    3   10    0    7    1    1    3    4    6    9    6    2    6    9    3    3    8    1    7    2    5    4    5   10    7    5    7 
#    4    7    9    9    9   10   10    7    2    2    2    7    7    0    0    5    5    5    6    9    4    6    0   10    4    1    3    6    8    1    1    6 
#    6    1    9   10    9    4    0    2    3    3    8    0    8    3    7    9    6    7    3    8    2    1   10    9    6    4    8    7    2    1    3    5 
#    3    8    7    8    9   10    1    5    6    3    9    2    3    3    8    2    6    3    6    9    1    4    7    5    0    8    3   10    1    1    0    8 
#    1    0    4    1    9    3    4    1    5    4    4    6    0    0    1    7    9    8    5    9    9    2    6    9    5    3    8    5   10    6    3    4 
# ---- Reference C (A*B) ----
#      708      707      841      883      827      798      762      781      783      808      708      853      776      760      740      894      880      875      836      894      857      737      639      849      781      528      733      914      756      649      692      919 
#      515      660      809      725      654      620      795      677      642      670      452      715      830      583      646      700      723      653      698      716      741      653      583      694      694      362      589      632      678      654      532      634 
#      533      693      764      769      758      687      657      673      728      753      679      722      828      707      658      833      723      868      759      768      769      627      625      785      720      607      613      847      859      680      626      815 
#      655      597      800      781      822      646      810      751      727      796      666      796      681      799      643      825      819      906      842      896      828      774      570      720      851      502      724      779      700      708      649      802 
#      436      579      672      732      623      653      706      613      561      643      515      682      702      673      727      657      662      701      789      639      757      686      636      619      719      388      507      694      670      658      565      674 
#      664      802      824      862      824      669      907      820      744      830      620      758      784      803      778      886      852      914      886      867      869      803      610      749      869      574      745      858      888      645      721      850 
#      629      799      831      887      826      920      982      757      848      890      695      970      910      882      863      975      991      930     1035      897      910      902      782      792      938      555      672      857      948      823      724      912 
#      569      744      802      844      650      694      833      727      722      730      576      714      773      708      755      752      703      747      919      743      821      810      575      758      762      463      636      860      701      631      630      761 
#      768      837      836     1039      919      930      885      869      810     1021      743      922      973      895     1008     1016     1022     1018     1112     1005      954      961      989      916      998      520      880     1022      910      717      916      938 
#      729      756      694      847      831      715      773      782      822      892      785      875      786      861      767      966      909      973      936      887      849      775      725      754      964      606      672      905      801      758      689      916 
#      776      745      769      802      880      831      823      787      895      906      811      869      960      987      858     1019      980     1022      991      830      949      839      861      742     1005      655      786      904      898      848      710      940 
#      569      603      779      708      667      597      766      620      656      574      550      608      791      665      803      668      631      737      846      717      865      750      627      703      810      363      546      761      713      692      632      621 
#      737      924      967     1019      902      889      843      897      840      861      804      851     1067      938      994      939      940      919     1002      942     1029      795      909      848      998      569      727      922      873      779      786      926 
#      787      941      968     1070     1007      912      882      849      812      862      743      890      983      938      996      944     1009      969     1129      970      986     1013      830      793      906      585      716     1056      854      785      871      958 
#      731      820      802      845      736      798      787      809      784      841      664      864      796      840      768      799      805      835      893      762      914      771      700      760      872      436      709      858      709      626      715      845 
#      823      843      951     1029      910     1008      829      844      950      986      878      901      960      968      914      910      967      979     1066      999      987      893      881      852     1021      598      848     1069      779      746      804     1008 
#      584      603      882      766      820      766      743      720      822      791      643      659      779      650      709      771      803      836      856      812      826      776      665      868      727      487      829      822      673      675      654      819 
#      682      641      814      804      885      721      753      663      789      754      826      701      881      827      825      923      815      993      944      910      945      819      777      778     1041      606      627      921      876      875      663      851 
#      652      759      845      925      700      776      912      810      672      759      628      808      840      731      819      741      810      802      993      772      926      901      703      819      841      406      707      914      722      553      773      698 
#      745      797      783      958      920      827      813      782      789      892      784      868      991      932      978      869      954      924     1020      949      936      819      856      826      985      568      700     1036      815      744      750      863 
#      522      698      705      724      618      639      615      528      493      621      503      634      767      612      671      647      575      703      763      610      741      641      655      550      749      465      444      808      703      617      531      656 
#      730      800      883      923      928      972      920      711      937      974      897      962     1045      960      941      994     1019     1104     1194      956     1033      938      977      899     1042      655      826     1102      950      952      769      909 
#      598      726      805      794      819      708      874      605      771      704      707      673      779      804      818      804      796      859      894      774      887      869      727      769      896      454      735      849      735      723      661      823 
#      696      748      923      973      844      703      853      779      781      797      656      778      920      740      839      934      885      865      905      939      803      885      726      808      881      492      718      915      780      746      717      819 
#      709      749      967      895      901      893      870      837      925      940      780      748      884      826      873      844      962      917     1004      833      961      899      791      882      918      580      863      902      718      717      730      900 
#      581      632      787      835      807      733      869      639      738      780      518      797      708      709      739      806      877      927      850      815      822      848      801      723      761      456      734      847      733      648      668      735 
#      630      703      754      803      789      718      644      552      709      723      666      747      793      787      696      771      793      822      839      792      776      696      630      650      851      508      680      798      665      673      648      845 
#      708      779      861      889      793      891      910      781      851      903      669      980      862      973      893      817      903      949     1024      949      911      861      671      819      856      582      701      926      810      733      799      911 
#      670      756      848      906      822      864      804      827      896      939      666      744      802      756      823      967      905      867      912      839      776      870      754      767      853      556      875      863      838      685      700      995 
#      619      725      950      825      899      968      895      747      821      886      742      915      925      837      788      903      939     1077      951      957      935      887      845      931      908      565      819      971      915      857      689      841 
#      535      605      631      665      565      717      711      614      650      633      568      687      707      638      713      670      691      637      836      679      760      679      605      570      740      328      589      645      635      646      583      690 
#      645      822      857      954      837      751      818      767      771      841      566      855      800      739      770      852      867      825      904      870      829      774      613      822      836      423      681      865      818      667      727      880 
# ---- DUT C (o_c) ----
#      708         707         841         883         827         798         762         781         783         808         708         853         776         760         740         894         880         875         836         894         857         737         639         849         781         528         733         914         756         649         692         919    
#      515         660         809         725         654         620         795         677         642         670         452         715         830         583         646         700         723         653         698         716         741         653         583         694         694         362         589         632         678         654         532         634    
#      533         693         764         769         758         687         657         673         728         753         679         722         828         707         658         833         723         868         759         768         769         627         625         785         720         607         613         847         859         680         626         815    
#      655         597         800         781         822         646         810         751         727         796         666         796         681         799         643         825         819         906         842         896         828         774         570         720         851         502         724         779         700         708         649         802    
#      436         579         672         732         623         653         706         613         561         643         515         682         702         673         727         657         662         701         789         639         757         686         636         619         719         388         507         694         670         658         565         674    
#      664         802         824         862         824         669         907         820         744         830         620         758         784         803         778         886         852         914         886         867         869         803         610         749         869         574         745         858         888         645         721         850    
#      629         799         831         887         826         920         982         757         848         890         695         970         910         882         863         975         991         930        1035         897         910         902         782         792         938         555         672         857         948         823         724         912    
#      569         744         802         844         650         694         833         690(X)      722         730         576         714         773         708         755         708(X)      703         747         919         743         821         810         575         733(X)      762         463         636         860         701         631         630         719(X) 
#      768         837         836        1039         919         930         885         869         810        1021         743         922         973         895        1008        1016        1022        1018        1112        1005         954         961         989         916         998         520         880        1022         910         717         916         938    
#      729         756         694         847         831         715         773         782         822         892         785         875         786         861         767         966         909         973         936         887         849         775         725         754         964         606         672         905         801         758         689         916    
#      776         745         769         802         880         831         823         787         895         906         811         869         960         987         858        1019         980        1022         991         830         949         839         861         742        1005         655         786         904         898         848         710         940    
#      569         603         779         708         667         597         766         620         656         574         550         608         791         665         803         668         631         737         846         717         865         750         627         703         810         363         546         761         713         692         632         621    
#      737         924         967        1019         902         889         843         897         840         861         804         851        1067         938         994         939         940         919        1002         942        1029         795         909         848         998         569         727         922         873         779         786         926    
#      787         941         968        1070        1007         912         882         849         812         862         743         890         983         938         996         944        1009         969        1129         970         986        1013         830         793         906         585         716        1056         854         785         871         958    
#      731         820         802         845         736         798         787         809         784         841         664         864         796         840         768         799         805         835         893         762         914         771         700         760         872         436         709         858         709         626         715         845    
#      823         843         951        1029         910        1008         829         733(X)      950         986         878         901         960         968         914         788(X)      967         979        1066         999         987         893         881         757(X)     1021         598         848        1069         779         746         804         862(X) 
#      584         603         882         766         820         766         743         720         822         791         643         659         779         650         709         771         803         836         856         812         826         776         665         868         727         487         829         822         673         675         654         819    
#      682         641         814         804         885         721         753         663         789         754         826         701         881         827         825         923         815         993         944         910         945         819         777         778        1041         606         627         921         876         875         663         851    
#      652         759         845         925         700         776         912         810         672         759         628         808         840         731         819         741         810         802         993         772         926         901         703         819         841         406         707         914         722         553         773         698    
#      745         797         783         958         920         827         813         782         789         892         784         868         991         932         978         869         954         924        1020         949         936         819         856         826         985         568         700        1036         815         744         750         863    
#      522         698         705         724         618         639         615         528         493         621         503         634         767         612         671         647         575         703         763         610         741         641         655         550         749         465         444         808         703         617         531         656    
#      730         800         883         923         928         972         920         711         937         974         897         962        1045         960         941         994        1019        1104        1194         956        1033         938         977         899        1042         655         826        1102         950         952         769         909    
#      598         726         805         794         819         708         874         605         771         704         707         673         779         804         818         804         796         859         894         774         887         869         727         769         896         454         735         849         735         723         661         823    
#      696         748         923         973         844         703         853         710(X)      781         797         656         778         920         740         839         887(X)      885         865         905         939         803         885         726         756(X)      881         492         718         915         780         746         717         771(X) 
#      709         749         967         895         901         893         870         837         925         940         780         748         884         826         873         844         962         917        1004         833         961         899         791         882         918         580         863         902         718         717         730         900    
#      581         632         787         835         807         733         869         639         738         780         518         797         708         709         739         806         877         927         850         815         822         848         801         723         761         456         734         847         733         648         668         735    
#      630         703         754         803         789         718         644         552         709         723         666         747         793         787         696         771         793         822         839         792         776         696         630         650         851         508         680         798         665         673         648         845    
#      708         779         861         889         793         891         910         781         851         903         669         980         862         973         893         817         903         949        1024         949         911         861         671         819         856         582         701         926         810         733         799         911    
#      670         756         848         906         822         864         804         827         896         939         666         744         802         756         823         967         905         867         912         839         776         870         754         767         853         556         875         863         838         685         700         995    
#      619         725         950         825         899         968         895         747         821         886         742         915         925         837         788         903         939        1077         951         957         935         887         845         931         908         565         819         971         915         857         689         841    
#      535         605         631         665         565         717         711         614         650         633         568         687         707         638         713         670         691         637         836         679         760         679         605         570         740         328         589         645         635         646         583         690    
#      645         822         857         954         837         751         818         615(X)      771         841         566         855         800         739         770         731(X)      867         825         904         870         829         774         613         708(X)      836         423         681         865         818         667         727         758(X) 
# ===== TEST FAILED: 16 mismatches =====
# ** Note: $finish    : tb_testMult.sv(126)
#    Time: 4485 ns  Iteration: 1  Instance: /tb_testMult
# End time: 14:26:18 on Sep 24,2025, Elapsed time: 0:00:01
# Errors: 0, Warnings: 0
